# MinMean MaxSTD
# ----------------------------------
0.00992215395021564 0.09911460443132163
0.1968388697507789 0.3976095183734378
0.22206625743368422 0.4156354589608148
0.0356798884236549 0.18549079218805192
0.34366232592384194 0.47493002818511526
0.004945513751006372 0.07015023624045354
0.0778340780735123 0.26791031030022067
0.10905091269330572 0.3117030816832047
1.11663499151505 2.71732711616519
1.8587793045034584 3.2631886582754905
1.919410632674989 3.128847834665068
2.048008954839714 3.6025389937081838
3.1125670041691484 2.8348904093089393
1.6488475731845649 2.892837846348595
1.7186929286096952 3.30593675031432
2.4355918963489276 3.4170231553001
1.9821142639941818 3.121775323843593
1.9595290328952686 3.418786896098112
1.9291017326058524 3.322050698075189
1.8110271428614184 3.046379789053491
1.7925326453590167 2.892902678884306
2.493190790162845 3.4034380152711625
2.7303090796447993 3.4077799963877613
1.3915533594117102 2.631015588217558
1.3653508758802948 2.606962901416129
3.521884586721577 3.362316665379725
2.3076083215362098 3.210217941508776
1.6749518886870325 3.1539822559996837
0.039346206314486855 0.4426989508565838
-0.2441314493834483 0.4056518848486864
-0.14843289107583557 0.3940550174234783
-0.13235838633313074 0.5371547856002324
-0.164700830536945 0.4203805979960572
0.10211515528874557 0.5762541116985718
-0.10796614340394813 0.49849376842468063
48.59060846220362 39.26965019525742
0.08281183695654755 0.09713673720549508
0.013989605523164998 0.05327109616279727
0.059020707332961435 0.09803704056110427
0.06400874018990876 0.09133700784230814
0.04140712028762843 0.08197562079410152
0.06983697300244124 0.1350315424636513
0.023575344143374283 0.05789238280255831
0.05990637370117826 0.08840732332377889
0.05367077266442491 0.07815232328161602
0.09596679657459957 0.12897157012722618
0.0212188933875616 0.043244865867874696
0.04274596432541108 0.07064626152633294
0.045448370288229005 0.09886753250748527
0.03640830861631941 0.05507371620121476
0.05460655866127295 0.08456289965048723
0.06472740894084235 0.07795068190200792
0.05428040974419936 0.07360602352231253
0.0678506767997002 0.09208946459701703
0.014017629186865324 0.056362438820646815
0.03450572411826678 0.07757776707271816
0.00992215395021564 0.09911460443132163
0.1968388697507789 0.3976095183734377
0.22206625743368422 0.4156354589608149
0.0356798884236549 0.1854907921880521
0.34366232592384194 0.47493002818511526
0.004945513751006372 0.07015023624045354
0.0778340780735123 0.26791031030022067
0.10905091269330572 0.31170308168320465
1.11663499151505 2.71732711616519
1.8587793045034584 3.2631886582754905
1.919410632674989 3.128847834665068
2.048008954839714 3.6025389937081838
3.1125670041691484 2.8348904093089393
1.6488475731845649 2.892837846348595
1.7186929286096952 3.30593675031432
2.4355918963489276 3.4170231553001
1.9821142639941818 3.121775323843593
1.9595290328952686 3.418786896098112
1.9291017326058524 3.3220506980751896
1.8110271428614184 3.046379789053491
1.7925326453590167 2.892902678884306
2.493190790162845 3.4034380152711625
2.7303090796447993 3.4077799963877613
1.3915533594117102 2.6310155882175574
1.3653508758802948 2.606962901416129
3.521884586721577 3.362316665379725
2.3076083215362098 3.2102179415087755
1.6749518886870325 3.1539822559996833
0.039346206314486896 0.4426989508565838
-0.2441314493834483 0.4056518848486864
-0.14843289107583554 0.3940550174234783
-0.13235838633313074 0.5371547856002324
-0.16470083053694495 0.4203805979960572
0.10211515528874553 0.5762541116985718
-0.10796614340394813 0.49849376842468063
48.59060846220362 39.26965019525743
0.08281183695654755 0.09713673720549508
0.013989605523164998 0.05327109616279727
0.059020707332961435 0.09803704056110425
0.06400874018990876 0.09133700784230814
0.04140712028762843 0.08197562079410152
0.06983697300244124 0.1350315424636513
0.023575344143374283 0.057892382802558304
0.05990637370117827 0.08840732332377889
0.053670772664424896 0.07815232328161602
0.09596679657459957 0.12897157012722618
0.0212188933875616 0.043244865867874696
0.04274596432541108 0.07064626152633294
0.045448370288229 0.09886753250748527
0.03640830861631941 0.05507371620121476
0.054606558661272966 0.08456289965048722
0.06472740894084235 0.07795068190200792
0.05428040974419938 0.07360602352231252
0.0678506767997002 0.09208946459701703
0.014017629186865324 0.056362438820646815
0.03450572411826678 0.07757776707271816
0.00992215395021564 0.09911460443132163
0.1968388697507789 0.3976095183734377
0.22206625743368422 0.4156354589608149
0.0356798884236549 0.18549079218805212
0.34366232592384194 0.47493002818511526
0.004945513751006372 0.07015023624045354
0.0778340780735123 0.26791031030022067
0.10905091269330572 0.31170308168320465
1.11663499151505 2.71732711616519
1.8587793045034584 3.2631886582754905
1.919410632674989 3.128847834665068
2.048008954839714 3.6025389937081846
3.1125670041691484 2.8348904093089393
1.6488475731845649 2.892837846348595
1.7186929286096952 3.3059367503143195
2.4355918963489276 3.4170231553001
1.9821142639941818 3.1217753238435924
1.9595290328952686 3.418786896098112
1.9291017326058524 3.3220506980751896
1.8110271428614184 3.04637978905349
1.7925326453590167 2.892902678884306
2.493190790162845 3.4034380152711625
2.7303090796447993 3.4077799963877613
1.3915533594117102 2.631015588217557
1.3653508758802948 2.606962901416129
3.521884586721577 3.362316665379725
2.3076083215362098 3.210217941508776
1.6749518886870325 3.1539822559996833
0.03934620631448688 0.4426989508565838
-0.24413144938344833 0.4056518848486864
-0.14843289107583557 0.3940550174234783
-0.13235838633313077 0.5371547856002324
-0.16470083053694495 0.42038059799605726
0.1021151552887455 0.5762541116985718
-0.10796614340394814 0.49849376842468063
48.59060846220362 39.26965019525743
0.08281183695654754 0.09713673720549508
0.013989605523164998 0.05327109616279727
0.059020707332961435 0.09803704056110425
0.06400874018990876 0.09133700784230814
0.04140712028762843 0.08197562079410152
0.06983697300244124 0.1350315424636513
0.023575344143374283 0.05789238280255831
0.05990637370117827 0.08840732332377887
0.05367077266442491 0.07815232328161602
0.09596679657459957 0.1289715701272262
0.021218893387561603 0.043244865867874696
0.04274596432541108 0.07064626152633294
0.045448370288229005 0.09886753250748527
0.03640830861631941 0.05507371620121476
0.054606558661272966 0.08456289965048723
0.06472740894084235 0.07795068190200792
0.05428040974419938 0.07360602352231252
0.0678506767997002 0.09208946459701704
0.014017629186865324 0.05636243882064681
0.03450572411826678 0.07757776707271816
0.00992215395021564 0.09911460443132163
0.1968388697507789 0.3976095183734377
0.22206625743368422 0.4156354589608149
0.0356798884236549 0.18549079218805212
0.34366232592384194 0.47493002818511526
0.004945513751006372 0.07015023624045354
0.0778340780735123 0.2679103103002207
0.10905091269330572 0.31170308168320465
1.11663499151505 2.71732711616519
1.8587793045034584 3.2631886582754905
1.919410632674989 3.128847834665068
2.048008954839714 3.6025389937081846
3.1125670041691484 2.8348904093089393
1.6488475731845649 2.892837846348595
1.7186929286096952 3.3059367503143195
2.4355918963489276 3.4170231553001
1.9821142639941818 3.121775323843593
1.9595290328952686 3.4187868960981116
1.9291017326058524 3.3220506980751896
1.8110271428614184 3.04637978905349
1.7925326453590167 2.892902678884306
2.493190790162845 3.4034380152711625
2.7303090796447993 3.407779996387761
1.3915533594117102 2.6310155882175574
1.3653508758802948 2.606962901416129
3.521884586721577 3.3623166653797263
2.3076083215362098 3.2102179415087764
1.6749518886870325 3.1539822559996833
0.03934620631448691 0.4426989508565838
-0.24413144938344833 0.4056518848486864
-0.14843289107583557 0.3940550174234783
-0.13235838633313074 0.5371547856002324
-0.16470083053694495 0.42038059799605726
0.10211515528874558 0.5762541116985718
-0.10796614340394814 0.49849376842468063
48.59060846220362 39.26965019525743
0.08281183695654756 0.09713673720549508
0.013989605523164996 0.05327109616279727
0.059020707332961435 0.09803704056110425
0.06400874018990876 0.09133700784230814
0.04140712028762843 0.0819756207941015
0.06983697300244122 0.1350315424636513
0.023575344143374283 0.05789238280255831
0.05990637370117827 0.08840732332377889
0.053670772664424896 0.07815232328161603
0.09596679657459957 0.1289715701272262
0.021218893387561607 0.043244865867874696
0.04274596432541108 0.07064626152633294
0.04544837028822899 0.09886753250748527
0.03640830861631941 0.05507371620121476
0.054606558661272966 0.08456289965048723
0.06472740894084236 0.07795068190200792
0.05428040974419938 0.07360602352231252
0.0678506767997002 0.09208946459701703
0.014017629186865325 0.056362438820646794
0.03450572411826678 0.07757776707271814
0.00992215395021564 0.09911460443132163
0.1968388697507789 0.3976095183734377
0.22206625743368422 0.4156354589608149
0.0356798884236549 0.18549079218805212
0.34366232592384194 0.47493002818511526
0.004945513751006372 0.07015023624045354
0.0778340780735123 0.2679103103002207
0.10905091269330572 0.31170308168320465
1.11663499151505 2.71732711616519
1.8587793045034584 3.2631886582754905
1.919410632674989 3.128847834665068
2.048008954839714 3.6025389937081846
3.1125670041691484 2.8348904093089393
1.6488475731845649 2.8928378463485953
1.7186929286096952 3.3059367503143187
2.4355918963489276 3.4170231553001
1.9821142639941818 3.121775323843593
1.9595290328952686 3.418786896098112
1.9291017326058524 3.3220506980751887
1.8110271428614184 3.04637978905349
1.7925326453590167 2.8929026788843055
2.493190790162845 3.4034380152711625
2.7303090796447993 3.4077799963877604
1.3915533594117102 2.631015588217557
1.3653508758802948 2.606962901416129
3.521884586721577 3.3623166653797263
2.3076083215362098 3.2102179415087764
1.6749518886870325 3.1539822559996833
0.03934620631448692 0.4426989508565838
-0.24413144938344833 0.4056518848486864
-0.14843289107583557 0.39405501742347837
-0.13235838633313074 0.5371547856002324
-0.16470083053694495 0.4203805979960572
0.10211515528874551 0.5762541116985718
-0.10796614340394814 0.49849376842468063
48.59060846220362 39.26965019525742
0.08281183695654756 0.09713673720549508
0.013989605523164996 0.053271096162797266
0.05902070733296145 0.09803704056110425
0.06400874018990876 0.09133700784230812
0.04140712028762843 0.0819756207941015
0.06983697300244122 0.1350315424636513
0.023575344143374283 0.057892382802558304
0.05990637370117825 0.08840732332377889
0.053670772664424896 0.07815232328161602
0.09596679657459957 0.1289715701272262
0.021218893387561607 0.043244865867874696
0.04274596432541107 0.07064626152633294
0.045448370288228984 0.09886753250748527
0.03640830861631941 0.05507371620121477
0.054606558661272966 0.08456289965048722
0.06472740894084236 0.07795068190200792
0.05428040974419938 0.07360602352231252
0.0678506767997002 0.09208946459701703
0.014017629186865324 0.056362438820646794
0.03450572411826678 0.07757776707271814
0.00992215395021564 0.09911460443132161
0.1968388697507789 0.39760951837343733
0.22206625743368422 0.4156354589608149
0.0356798884236549 0.18549079218805214
0.34366232592384194 0.47493002818511526
0.004945513751006372 0.07015023624045354
0.0778340780735123 0.2679103103002207
0.10905091269330572 0.3117030816832046
1.11663499151505 2.71732711616519
1.8587793045034584 3.2631886582754905
1.919410632674989 3.128847834665068
2.048008954839714 3.6025389937081846
3.1125670041691484 2.8348904093089393
1.6488475731845649 2.892837846348595
1.7186929286096952 3.3059367503143187
2.4355918963489276 3.4170231553001003
1.9821142639941818 3.121775323843593
1.9595290328952686 3.418786896098112
1.9291017326058524 3.3220506980751887
1.8110271428614184 3.04637978905349
1.7925326453590167 2.8929026788843055
2.493190790162845 3.4034380152711625
2.7303090796447993 3.407779996387761
1.3915533594117102 2.631015588217557
1.3653508758802948 2.606962901416129
3.521884586721577 3.3623166653797263
2.3076083215362098 3.2102179415087764
1.6749518886870325 3.1539822559996833
0.03934620631448691 0.4426989508565837
-0.24413144938344836 0.4056518848486864
-0.1484328910758356 0.39405501742347837
-0.13235838633313074 0.5371547856002324
-0.16470083053694495 0.4203805979960572
0.10211515528874555 0.5762541116985718
-0.10796614340394815 0.49849376842468063
48.59060846220361 39.26965019525741
0.08281183695654756 0.09713673720549508
0.013989605523164996 0.053271096162797266
0.05902070733296145 0.09803704056110425
0.06400874018990875 0.09133700784230811
0.04140712028762843 0.08197562079410152
0.06983697300244122 0.1350315424636513
0.02357534414337428 0.05789238280255831
0.059906373701178246 0.08840732332377889
0.053670772664424896 0.07815232328161602
0.09596679657459957 0.1289715701272262
0.021218893387561603 0.04324486586787469
0.04274596432541107 0.07064626152633294
0.04544837028822899 0.09886753250748527
0.03640830861631941 0.05507371620121477
0.05460655866127297 0.08456289965048722
0.06472740894084238 0.07795068190200792
0.05428040974419938 0.07360602352231252
0.0678506767997002 0.09208946459701703
0.014017629186865324 0.0563624388206468
0.03450572411826678 0.07757776707271814
0.00992215395021564 0.09911460443132161
0.1968388697507789 0.39760951837343733
0.22206625743368422 0.4156354589608149
0.0356798884236549 0.18549079218805214
0.34366232592384194 0.4749300281851153
0.004945513751006372 0.07015023624045354
0.0778340780735123 0.2679103103002207
0.10905091269330572 0.3117030816832046
1.11663499151505 2.71732711616519
1.8587793045034584 3.2631886582754905
1.919410632674989 3.128847834665068
2.048008954839714 3.6025389937081846
3.1125670041691484 2.8348904093089393
1.6488475731845649 2.892837846348595
1.7186929286096952 3.3059367503143187
2.4355918963489276 3.4170231553001
1.9821142639941818 3.1217753238435924
1.9595290328952686 3.4187868960981125
1.9291017326058524 3.3220506980751887
1.8110271428614184 3.0463797890534905
1.7925326453590167 2.8929026788843055
2.493190790162845 3.4034380152711625
2.7303090796447993 3.4077799963877613
1.3915533594117102 2.6310155882175565
1.3653508758802948 2.606962901416129
3.521884586721577 3.3623166653797263
2.3076083215362098 3.210217941508776
1.6749518886870325 3.1539822559996833
0.03934620631448689 0.4426989508565836
-0.24413144938344833 0.4056518848486864
-0.1484328910758356 0.39405501742347837
-0.13235838633313074 0.5371547856002324
-0.16470083053694495 0.4203805979960572
0.10211515528874555 0.5762541116985718
-0.10796614340394813 0.49849376842468063
48.59060846220361 39.26965019525741
0.08281183695654756 0.09713673720549508
0.013989605523164996 0.053271096162797266
0.05902070733296145 0.09803704056110425
0.06400874018990875 0.09133700784230811
0.04140712028762843 0.0819756207941015
0.06983697300244122 0.1350315424636513
0.023575344143374283 0.057892382802558304
0.059906373701178246 0.0884073233237789
0.053670772664424896 0.07815232328161603
0.09596679657459957 0.1289715701272262
0.021218893387561607 0.04324486586787469
0.04274596432541107 0.07064626152633294
0.04544837028822899 0.09886753250748527
0.036408308616319406 0.05507371620121477
0.05460655866127297 0.08456289965048723
0.06472740894084238 0.07795068190200792
0.05428040974419938 0.07360602352231252
0.0678506767997002 0.09208946459701703
0.014017629186865325 0.056362438820646794
0.03450572411826678 0.07757776707271814
0.00992215395021564 0.09911460443132161
0.1968388697507789 0.39760951837343744
0.22206625743368422 0.4156354589608149
0.0356798884236549 0.18549079218805214
0.34366232592384194 0.4749300281851153
0.004945513751006372 0.07015023624045354
0.0778340780735123 0.2679103103002207
0.10905091269330572 0.3117030816832046
1.11663499151505 2.71732711616519
1.8587793045034584 3.263188658275491
1.919410632674989 3.128847834665068
2.048008954839714 3.602538993708185
3.1125670041691484 2.8348904093089393
1.6488475731845649 2.892837846348595
1.7186929286096952 3.3059367503143195
2.4355918963489276 3.4170231553001
1.9821142639941818 3.1217753238435924
1.9595290328952686 3.4187868960981125
1.9291017326058524 3.3220506980751887
1.8110271428614184 3.0463797890534905
1.7925326453590167 2.8929026788843055
2.493190790162845 3.4034380152711625
2.7303090796447993 3.407779996387761
1.3915533594117102 2.631015588217557
1.3653508758802948 2.6069629014161286
3.521884586721577 3.3623166653797263
2.3076083215362098 3.2102179415087755
1.6749518886870325 3.1539822559996833
0.039346206314486855 0.4426989508565837
-0.2441314493834483 0.4056518848486864
-0.14843289107583557 0.39405501742347837
-0.1323583863331307 0.5371547856002324
-0.16470083053694495 0.42038059799605715
0.1021151552887455 0.5762541116985718
-0.10796614340394813 0.49849376842468063
48.590608462203626 39.26965019525742
0.08281183695654756 0.09713673720549507
0.013989605523164996 0.053271096162797266
0.059020707332961456 0.09803704056110425
0.06400874018990875 0.09133700784230811
0.04140712028762843 0.08197562079410149
0.06983697300244122 0.1350315424636513
0.023575344143374283 0.057892382802558304
0.05990637370117825 0.0884073233237789
0.053670772664424896 0.07815232328161603
0.09596679657459957 0.1289715701272262
0.021218893387561607 0.04324486586787469
0.04274596432541107 0.07064626152633294
0.045448370288228984 0.09886753250748527
0.03640830861631941 0.055073716201214776
0.054606558661272966 0.08456289965048722
0.06472740894084238 0.07795068190200792
0.05428040974419938 0.07360602352231252
0.0678506767997002 0.09208946459701703
0.014017629186865325 0.056362438820646794
0.03450572411826678 0.07757776707271814
0.00992215395021564 0.09911460443132161
0.1968388697507789 0.39760951837343744
0.22206625743368422 0.4156354589608149
0.0356798884236549 0.18549079218805214
0.34366232592384194 0.4749300281851153
0.004945513751006372 0.07015023624045354
0.0778340780735123 0.2679103103002207
0.10905091269330572 0.3117030816832046
1.11663499151505 2.7173271161651904
1.8587793045034584 3.2631886582754905
1.919410632674989 3.1288478346650686
2.048008954839714 3.6025389937081846
3.1125670041691484 2.8348904093089393
1.6488475731845649 2.892837846348595
1.7186929286096952 3.3059367503143195
2.4355918963489276 3.4170231553001003
1.9821142639941818 3.1217753238435924
1.9595290328952686 3.4187868960981125
1.9291017326058524 3.3220506980751887
1.8110271428614184 3.0463797890534905
1.7925326453590167 2.8929026788843055
2.493190790162845 3.403438015271162
2.7303090796447993 3.407779996387761
1.3915533594117102 2.6310155882175565
1.3653508758802948 2.6069629014161286
3.521884586721577 3.3623166653797263
2.3076083215362098 3.210217941508776
1.6749518886870325 3.1539822559996833
0.03934620631448682 0.44269895085658373
-0.2441314493834483 0.4056518848486864
-0.14843289107583557 0.39405501742347837
-0.1323583863331307 0.5371547856002324
-0.164700830536945 0.42038059799605715
0.10211515528874557 0.5762541116985718
-0.10796614340394806 0.49849376842468063
48.59060846220362 39.26965019525743
0.08281183695654755 0.09713673720549507
0.013989605523164996 0.053271096162797266
0.05902070733296145 0.09803704056110425
0.06400874018990874 0.09133700784230818
0.04140712028762843 0.08197562079410149
0.06983697300244124 0.1350315424636513
0.023575344143374283 0.057892382802558304
0.05990637370117826 0.0884073233237789
0.053670772664424896 0.07815232328161602
0.0959667965745996 0.1289715701272262
0.021218893387561607 0.04324486586787469
0.04274596432541107 0.07064626152633292
0.04544837028822899 0.09886753250748527
0.036408308616319406 0.055073716201214776
0.05460655866127297 0.08456289965048722
0.06472740894084238 0.07795068190200792
0.05428040974419938 0.07360602352231252
0.06785067679970018 0.09208946459701703
0.014017629186865325 0.056362438820646794
0.03450572411826678 0.07757776707271816
